<svg width="172" height="49" viewBox="0 0 172 49" fill="none" xmlns="http://www.w3.org/2000/svg">
<path d="M41.5923 9.45142V41.0019H48.6659V30.8386L52.7208 26.8174L62.4076 41.0019H71.2834L57.4966 21.9125L70.0669 9.45142H61.2362L48.6659 22.5312V9.45142H41.5923Z" fill="white"/>
<path d="M79.1085 29.6013C79.1085 28.6881 79.1986 27.7896 79.3788 26.9058C79.559 26.0221 79.8594 25.2414 80.2799 24.5638C80.7305 23.8863 81.3162 23.3413 82.0371 22.9289C82.7579 22.487 83.659 22.266 84.7403 22.266C85.8217 22.266 86.7227 22.487 87.4436 22.9289C88.1945 23.3413 88.7803 23.8863 89.2008 24.5638C89.6513 25.2414 89.9667 26.0221 90.1469 26.9058C90.3271 27.7896 90.4172 28.6881 90.4172 29.6013C90.4172 30.5145 90.3271 31.413 90.1469 32.2968C89.9667 33.1511 89.6513 33.9318 89.2008 34.6388C88.7803 35.3163 88.1945 35.8613 87.4436 36.2738C86.7227 36.6862 85.8217 36.8924 84.7403 36.8924C83.659 36.8924 82.7579 36.6862 82.0371 36.2738C81.3162 35.8613 80.7305 35.3163 80.2799 34.6388C79.8594 33.9318 79.559 33.1511 79.3788 32.2968C79.1986 31.413 79.1085 30.5145 79.1085 29.6013ZM72.7107 29.6013C72.7107 31.4278 72.9961 33.0775 73.5668 34.5504C74.1375 36.0234 74.9484 37.2901 75.9997 38.3506C77.051 39.3817 78.3125 40.1771 79.7843 40.7368C81.2561 41.2965 82.9081 41.5764 84.7403 41.5764C86.5726 41.5764 88.2246 41.2965 89.6964 40.7368C91.1982 40.1771 92.4747 39.3817 93.526 38.3506C94.5773 37.2901 95.3883 36.0234 95.959 34.5504C96.5297 33.0775 96.815 31.4278 96.815 29.6013C96.815 27.7749 96.5297 26.1252 95.959 24.6522C95.3883 23.1498 94.5773 21.8831 93.526 20.852C92.4747 19.7915 91.1982 18.9814 89.6964 18.4217C88.2246 17.8325 86.5726 17.5379 84.7403 17.5379C82.9081 17.5379 81.2561 17.8325 79.7843 18.4217C78.3125 18.9814 77.051 19.7915 75.9997 20.852C74.9484 21.8831 74.1375 23.1498 73.5668 24.6522C72.9961 26.1252 72.7107 27.7749 72.7107 29.6013Z" fill="white"/>
<path d="M112.734 36.8924C111.713 36.8924 110.842 36.6862 110.121 36.2738C109.4 35.8613 108.814 35.3311 108.364 34.683C107.943 34.0054 107.628 33.2248 107.418 32.341C107.237 31.4572 107.147 30.5587 107.147 29.6455C107.147 28.7028 107.237 27.7896 107.418 26.9058C107.598 26.0221 107.898 25.2414 108.319 24.5638C108.769 23.8863 109.34 23.3413 110.031 22.9289C110.752 22.487 111.638 22.266 112.689 22.266C113.71 22.266 114.566 22.487 115.257 22.9289C115.978 23.3413 116.564 23.901 117.014 24.608C117.465 25.2856 117.78 26.0662 117.96 26.95C118.171 27.8338 118.276 28.7323 118.276 29.6455C118.276 30.5587 118.186 31.4572 118.006 32.341C117.825 33.2248 117.51 34.0054 117.059 34.683C116.639 35.3311 116.068 35.8613 115.347 36.2738C114.656 36.6862 113.785 36.8924 112.734 36.8924ZM100.975 18.1565V49H107.373V38.1739H107.463C108.244 39.2933 109.235 40.1476 110.436 40.7368C111.668 41.2965 113.004 41.5764 114.446 41.5764C116.158 41.5764 117.645 41.2523 118.907 40.6042C120.198 39.9561 121.265 39.0871 122.106 37.9971C122.977 36.9071 123.622 35.6551 124.043 34.2411C124.463 32.8271 124.674 31.3541 124.674 29.8223C124.674 28.202 124.463 26.6554 124.043 25.1825C123.622 23.6801 122.977 22.3692 122.106 21.2497C121.234 20.1303 120.138 19.2318 118.817 18.5542C117.495 17.8767 115.918 17.5379 114.086 17.5379C112.644 17.5379 111.322 17.8178 110.121 18.3775C108.919 18.9372 107.928 19.8357 107.147 21.073H107.057V18.1565H100.975Z" fill="white"/>
<path d="M128.518 18.1565V41.0019H134.916V30.706C134.916 29.675 135.021 28.7175 135.231 27.8338C135.442 26.95 135.787 26.1841 136.268 25.536C136.778 24.8584 137.439 24.3282 138.25 23.9452C139.061 23.5622 140.052 23.3708 141.224 23.3708C141.614 23.3708 142.02 23.4002 142.44 23.4591C142.861 23.4886 143.221 23.5328 143.521 23.5917V17.7588C143.011 17.6115 142.545 17.5379 142.125 17.5379C141.314 17.5379 140.533 17.6557 139.782 17.8914C139.031 18.1271 138.325 18.4658 137.664 18.9077C137.003 19.3202 136.418 19.8357 135.907 20.4543C135.396 21.0435 134.991 21.6916 134.691 22.3986H134.6V18.1565H128.518Z" fill="white"/>
<path d="M145.759 25.1825C145.849 23.7095 146.225 22.487 146.886 21.5148C147.546 20.5427 148.387 19.762 149.409 19.1729C150.43 18.5837 151.571 18.1713 152.833 17.9356C154.124 17.6705 155.416 17.5379 156.708 17.5379C157.879 17.5379 159.065 17.6263 160.267 17.803C161.468 17.9503 162.565 18.2596 163.556 18.731C164.547 19.2023 165.358 19.8651 165.989 20.7195C166.62 21.5443 166.935 22.649 166.935 24.0336V35.9202C166.935 36.9513 166.995 37.9382 167.115 38.8809C167.235 39.8236 167.446 40.5306 167.746 41.0019H161.258C161.138 40.6484 161.033 40.2949 160.943 39.9414C160.883 39.5584 160.838 39.1755 160.808 38.7925C159.786 39.8236 158.585 40.5453 157.203 40.9577C155.822 41.3701 154.41 41.5764 152.968 41.5764C151.857 41.5764 150.82 41.4438 149.859 41.1787C148.898 40.9135 148.057 40.5011 147.336 39.9414C146.615 39.3817 146.045 38.6747 145.624 37.8203C145.234 36.966 145.038 35.9497 145.038 34.7713C145.038 33.4752 145.264 32.4146 145.714 31.5898C146.195 30.7355 146.796 30.0579 147.516 29.5571C148.267 29.0563 149.108 28.6881 150.039 28.4524C151.001 28.1873 151.962 27.9811 152.923 27.8338C153.884 27.6865 154.83 27.5686 155.761 27.4803C156.693 27.3919 157.519 27.2593 158.239 27.0826C158.96 26.9058 159.531 26.6554 159.952 26.3314C160.372 25.9779 160.567 25.4771 160.537 24.829C160.537 24.1514 160.417 23.6212 160.177 23.2382C159.967 22.8258 159.666 22.5164 159.276 22.3102C158.915 22.0746 158.48 21.9273 157.969 21.8683C157.489 21.78 156.963 21.7358 156.392 21.7358C155.131 21.7358 154.139 22.0009 153.419 22.5312C152.698 23.0614 152.277 23.9452 152.157 25.1825H145.759ZM160.537 29.8223C160.267 30.0579 159.921 30.2494 159.501 30.3967C159.111 30.5145 158.675 30.6176 158.194 30.706C157.744 30.7944 157.263 30.868 156.753 30.927C156.242 30.9859 155.731 31.0595 155.221 31.1479C154.74 31.2363 154.26 31.3541 153.779 31.5014C153.328 31.6487 152.923 31.8549 152.563 32.12C152.232 32.3557 151.962 32.665 151.752 33.048C151.541 33.431 151.436 33.917 151.436 34.5062C151.436 35.0659 151.541 35.5373 151.752 35.9202C151.962 36.3032 152.247 36.6125 152.608 36.8482C152.968 37.0544 153.389 37.2017 153.869 37.2901C154.35 37.3785 154.845 37.4226 155.356 37.4226C156.617 37.4226 157.594 37.2164 158.285 36.804C158.975 36.3916 159.486 35.9055 159.816 35.3458C160.147 34.7566 160.342 34.1674 160.402 33.5783C160.492 32.9891 160.537 32.5177 160.537 32.1642V29.8223Z" fill="white"/>
<path d="M17.0803 27.4159H6.50242C6.53295 26.9668 6.62453 26.4578 6.77717 25.8889C6.96034 25.32 7.25035 24.7811 7.64721 24.2721C8.0746 23.7631 8.6241 23.3439 9.29571 23.0146C9.99785 22.6553 10.8679 22.4756 11.9058 22.4756C13.4933 22.4756 14.6686 22.8948 15.4318 23.7332C16.2255 24.5715 16.775 25.7991 17.0803 27.4159ZM6.50242 31.4579H23.5827C23.7048 29.6614 23.5522 27.9398 23.1248 26.2931C22.6974 24.6463 21.9953 23.1793 21.0184 21.8918C20.072 20.6043 18.8509 19.5864 17.3551 18.8378C15.8592 18.0594 14.1038 17.6702 12.089 17.6702C10.2879 17.6702 8.63937 17.9845 7.1435 18.6133C5.67817 19.242 4.41127 20.1103 3.34279 21.2181C2.27432 22.296 1.45007 23.5835 0.870042 25.0805C0.290014 26.5775 0 28.1943 0 29.9309C0 31.7273 0.27475 33.3741 0.824251 34.8711C1.40428 36.3681 2.21327 37.6556 3.25121 38.7335C4.28916 39.8113 5.55606 40.6497 7.05192 41.2485C8.54778 41.8174 10.2268 42.1018 12.089 42.1018C14.7755 42.1018 17.065 41.503 18.9578 40.3053C20.8505 39.1077 22.2548 37.1167 23.1706 34.3322H17.4466C17.2329 35.0508 16.6529 35.7394 15.7066 36.3981C14.7602 37.0268 13.6307 37.3412 12.318 37.3412C10.4863 37.3412 9.08202 36.8771 8.10513 35.949C7.12824 35.0208 6.594 33.5238 6.50242 31.4579Z" fill="white"/>
<path d="M27.6224 9.45142V41.5179H34.1248V9.45142H27.6224Z" fill="white"/>
<path fill-rule="evenodd" clip-rule="evenodd" d="M74.0068 5.15532H66.1222V0H79.2632V12.8883H74.0068V5.15532Z" fill="white"/>
<path d="M164.297 13.7041V17.3013H165.287V13.7041H166.635V12.8883H162.949V13.7041H164.297Z" fill="white"/>
<path d="M167.154 12.8883V17.3013H168.08V14.2048H168.093L169.196 17.3013H169.958L171.061 14.1739H171.074V17.3013H172V12.8883H170.607L169.612 15.923H169.599L168.547 12.8883H167.154Z" fill="white"/>
</svg>
